{
    "success": true,
    "payload": {
        "id": 2,
        "brand_id": 5,
        "category_id": 1,
        "name": "Cumque ut quibusdam aliquid.",
        "value": 56.21,
        "gain": 0.47,
        "discountable": true,
        "created_at": "2021-10-21T15:37:57.000000Z",
        "updated_at": "2021-10-21T15:37:57.000000Z",
        "deleted_at": null,
        "brand": {
            "id": 5,
            "name": "Lang LLC",
            "description": "Itaque neque maxime mollitia. Odit eveniet optio ea voluptas voluptatem voluptatum. Dolorem voluptatum optio odio consequatur.",
            "created_at": "2021-10-21T15:37:57.000000Z",
            "updated_at": "2021-10-21T15:37:57.000000Z",
            "deleted_at": null
        },
        "category": {
            "id": 1,
            "name": "corrupti",
            "description": "Repudiandae omnis est similique voluptate voluptatem voluptatem rerum. Perspiciatis nihil veniam assumenda. Reprehenderit id eum enim inventore consequatur sunt consequatur natus.",
            "created_at": "2021-10-21T15:37:57.000000Z",
            "updated_at": "2021-10-21T15:37:57.000000Z",
            "deleted_at": null
        }
    },
    "message": null,
    "errors": null
}